[
   {
      "countryCode":"EU",
      "currencyName":"Euro",
      "currencyCode":"EUR"
   },
   {
      "countryCode":"AE",
      "currencyName":"Arab Emirates Dirham",
      "currencyCode":"AED"
   },
   {
      "countryCode":"AF",
      "currencyName":"Afghanistan Afghani",
      "currencyCode":"AFN"
   },
   {
      "countryCode":"AL",
      "currencyName":"Albanian Lek",
      "currencyCode":"ALL"
   },
   {
      "countryCode":"AM",
      "currencyName":"Armenian Dram",
      "currencyCode":"AMD"
   },
   {
      "countryCode":"AN",
      "currencyName":"Netherlands Antillean Guilder",
      "currencyCode":"ANG"
   },
   {
      "countryCode":"AO",
      "currencyName":"Angolan Kwanza",
      "currencyCode":"AOA"
   },
   {
      "countryCode":"AR",
      "currencyName":"Argentine Peso",
      "currencyCode":"ARS"
   },
   {
      "countryCode":"AU",
      "currencyName":"Australian Dollar",
      "currencyCode":"AUD"
   },
   {
      "countryCode":"AW",
      "currencyName":"Aruban Guilder",
      "currencyCode":"AWG"
   },
   {
      "countryCode":"AZ",
      "currencyName":"Azerbaijan New Manat",
      "currencyCode":"AZN"
   },
   {
      "countryCode":"BA",
      "currencyName":"Marka",
      "currencyCode":"BAM"
   },
   {
      "countryCode":"BB",
      "currencyName":"Barbados Dollar",
      "currencyCode":"BBD"
   },
   {
      "countryCode":"BD",
      "currencyName":"Bangladeshi Taka",
      "currencyCode":"BDT"
   },
   {
      "countryCode":"BG",
      "currencyName":"Bulgarian Lev",
      "currencyCode":"BGN"
   },
   {
      "countryCode":"BH",
      "currencyName":"Bahraini Dinar",
      "currencyCode":"BHD"
   },
   {
      "countryCode":"BI",
      "currencyName":"Burundi Franc",
      "currencyCode":"BIF"
   },
   {
      "countryCode":"BM",
      "currencyName":"Bermudian Dollar",
      "currencyCode":"BMD"
   },
   {
      "countryCode":"BN",
      "currencyName":"Brunei Dollar",
      "currencyCode":"BND"
   },
   {
      "countryCode":"BO",
      "currencyName":"Boliviano",
      "currencyCode":"BOB"
   },
   {
      "countryCode":"BR",
      "currencyName":"Brazilian Real",
      "currencyCode":"BRL"
   },
   {
      "countryCode":"BS",
      "currencyName":"Bahamian Dollar",
      "currencyCode":"BSD"
   },
   {
      "countryCode":"BT",
      "currencyName":"Bhutan Ngultrum",
      "currencyCode":"BTN"
   },
   {
      "countryCode":"BW",
      "currencyName":"Botswana Pula",
      "currencyCode":"BWP"
   },
   {
      "countryCode":"BY",
      "currencyName":"Belarussian Ruble",
      "currencyCode":"BYR"
   },
   {
      "countryCode":"BZ",
      "currencyName":"Belize Dollar",
      "currencyCode":"BZD"
   },
   {
      "countryCode":"CA",
      "currencyName":"Canadian Dollar",
      "currencyCode":"CAD"
   },
   {
      "countryCode":"CD",
      "currencyName":"Congo\\/Kinshasa Franc",
      "currencyCode":"CDF"
   },
   {
      "countryCode":"CH",
      "currencyName":"Swiss Franc",
      "currencyCode":"CHF"
   },
   {
      "countryCode":"CL",
      "currencyName":"Chilean Peso",
      "currencyCode":"CLP"
   },
   {
      "countryCode":"CN",
      "currencyName":"Yuan Renminbi",
      "currencyCode":"CNY"
   },
   {
      "countryCode":"CO",
      "currencyName":"Colombian Peso",
      "currencyCode":"COP"
   },
   {
      "countryCode":"CR",
      "currencyName":"Costa Rican Colon",
      "currencyCode":"CRC"
   },
   {
      "countryCode":"CU",
      "currencyName":"Cuban Peso",
      "currencyCode":"CUP"
   },
   {
      "countryCode":"CV",
      "currencyName":"Cape Verde Escudo",
      "currencyCode":"CVE"
   },
   {
      "countryCode":"CZ",
      "currencyName":"Czech Koruna",
      "currencyCode":"CZK"
   },
   {
      "countryCode":"DJ",
      "currencyName":"Djibouti Franc",
      "currencyCode":"DJF"
   },
   {
      "countryCode":"DK",
      "currencyName":"Danish Krone",
      "currencyCode":"DKK"
   },
   {
      "countryCode":"DO",
      "currencyName":"Dominican Peso",
      "currencyCode":"DOP"
   },
   {
      "countryCode":"DZ",
      "currencyName":"Algerian Dinar",
      "currencyCode":"DZD"
   },
   {
      "countryCode":"EG",
      "currencyName":"Egyptian Pound",
      "currencyCode":"EGP"
   },
   {
      "countryCode":"ER",
      "currencyName":"Eritrean Nakfa",
      "currencyCode":"ERN"
   },
   {
      "countryCode":"ET",
      "currencyName":"Ethiopian Birr",
      "currencyCode":"ETB"
   },
   {
      "countryCode":"FJ",
      "currencyName":"Fiji Dollar",
      "currencyCode":"FJD"
   },
   {
      "countryCode":"FK",
      "currencyName":"Falkland Islands Pound",
      "currencyCode":"FKP"
   },
   {
      "countryCode":"GB",
      "currencyName":"Pound Sterling",
      "currencyCode":"GBP"
   },
   {
      "countryCode":"GE",
      "currencyName":"Georgian Lari",
      "currencyCode":"GEL"
   },
   {
      "countryCode":"GG",
      "currencyName":"Guernsey Pound",
      "currencyCode":"GGP"
   },
   {
      "countryCode":"GI",
      "currencyName":"Gibraltar Pound",
      "currencyCode":"GIP"
   },
   {
      "countryCode":"GM",
      "currencyName":"Gambian Dalasi",
      "currencyCode":"GMD"
   },
   {
      "countryCode":"GN",
      "currencyName":"Guinea Franc",
      "currencyCode":"GNF"
   },
   {
      "countryCode":"GT",
      "currencyName":"Guatemalan Quetzal",
      "currencyCode":"GTQ"
   },
   {
      "countryCode":"GY",
      "currencyName":"Guyana Dollar",
      "currencyCode":"GYD"
   },
   {
      "countryCode":"HK",
      "currencyName":"Hong Kong Dollar",
      "currencyCode":"HKD"
   },
   {
      "countryCode":"HN",
      "currencyName":"Honduran Lempira",
      "currencyCode":"HNL"
   },
   {
      "countryCode":"HR",
      "currencyName":"Croatian Kuna",
      "currencyCode":"HRK"
   },
   {
      "countryCode":"HT",
      "currencyName":"Haitian Gourde",
      "currencyCode":"HTG"
   },
   {
      "countryCode":"HU",
      "currencyName":"Hungarian Forint",
      "currencyCode":"HUF"
   },
   {
      "countryCode":"ID",
      "currencyName":"Indonesian Rupiah",
      "currencyCode":"IDR"
   },
   {
      "countryCode":"IL",
      "currencyName":"Israeli New Shekel",
      "currencyCode":"ILS"
   },
   {
      "countryCode":"IN",
      "currencyName":"Indian Rupee",
      "currencyCode":"INR"
   },
   {
      "countryCode":"IQ",
      "currencyName":"Iraqi Dinar",
      "currencyCode":"IQD"
   },
   {
      "countryCode":"IR",
      "currencyName":"Iranian Rial",
      "currencyCode":"IRR"
   },
   {
      "countryCode":"IS",
      "currencyName":"Iceland Krona",
      "currencyCode":"ISK"
   },
   {
      "countryCode":"JM",
      "currencyName":"Jamaican Dollar",
      "currencyCode":"JMD"
   },
   {
      "countryCode":"JO",
      "currencyName":"Jordanian Dinar",
      "currencyCode":"JOD"
   },
   {
      "countryCode":"JP",
      "currencyName":"Japanese Yen",
      "currencyCode":"JPY"
   },
   {
      "countryCode":"KE",
      "currencyName":"Kenyan Shilling",
      "currencyCode":"KES"
   },
   {
      "countryCode":"KG",
      "currencyName":"Som",
      "currencyCode":"KGS"
   },
   {
      "countryCode":"KH",
      "currencyName":"Kampuchean Riel",
      "currencyCode":"KHR"
   },
   {
      "countryCode":"KM",
      "currencyName":"Comoros Franc",
      "currencyCode":"KMF"
   },
   {
      "countryCode":"KP",
      "currencyName":"North Korean Won",
      "currencyCode":"KPW"
   },
   {
      "countryCode":"KR",
      "currencyName":"Korean Won",
      "currencyCode":"KRW"
   },
   {
      "countryCode":"KW",
      "currencyName":"Kuwaiti Dinar",
      "currencyCode":"KWD"
   },
   {
      "countryCode":"KY",
      "currencyName":"Cayman Islands Dollar",
      "currencyCode":"KYD"
   },
   {
      "countryCode":"KZ",
      "currencyName":"Kazakhstan Tenge",
      "currencyCode":"KZT"
   },
   {
      "countryCode":"LA",
      "currencyName":"Lao Kip",
      "currencyCode":"LAK"
   },
   {
      "countryCode":"LB",
      "currencyName":"Lebanese Pound",
      "currencyCode":"LBP"
   },
   {
      "countryCode":"LK",
      "currencyName":"Sri Lanka Rupee",
      "currencyCode":"LKR"
   },
   {
      "countryCode":"LS",
      "currencyName":"Lesotho loti",
      "currencyCode":"LSL"
   },
   {
      "countryCode":"LR",
      "currencyName":"Liberian Dollar",
      "currencyCode":"LRD"
   },
   {
      "countryCode":"LT",
      "currencyName":"Lithuanian Litas",
      "currencyCode":"LTL"
   },
   {
      "countryCode":"LV",
      "currencyName":"Latvian Lats",
      "currencyCode":"LVL"
   },
   {
      "countryCode":"LY",
      "currencyName":"Libyan Dinar",
      "currencyCode":"LYD"
   },
   {
      "countryCode":"MA",
      "currencyName":"Moroccan Dirham",
      "currencyCode":"MAD"
   },
   {
      "countryCode":"MD",
      "currencyName":"Moldovan Leu",
      "currencyCode":"MDL"
   },
   {
      "countryCode":"MG",
      "currencyName":"Malagasy Ariary",
      "currencyCode":"MGA"
   },
   {
      "countryCode":"MK",
      "currencyName":"Denar",
      "currencyCode":"MKD"
   },
   {
      "countryCode":"MM",
      "currencyName":"Myanmar Kyat",
      "currencyCode":"MMK"
   },
   {
      "countryCode":"MN",
      "currencyName":"Mongolian Tugrik",
      "currencyCode":"MNT"
   },
   {
      "countryCode":"MO",
      "currencyName":"Macau Pataca",
      "currencyCode":"MOP"
   },
   {
      "countryCode":"MR",
      "currencyName":"Mauritanian Ouguiya",
      "currencyCode":"MRO"
   },
   {
      "countryCode":"MU",
      "currencyName":"Mauritius Rupee",
      "currencyCode":"MUR"
   },
   {
      "countryCode":"MW",
      "currencyName":"Malawi Kwacha",
      "currencyCode":"MWK"
   },
   {
      "countryCode":"MX",
      "currencyName":"Mexican Nuevo Peso",
      "currencyCode":"MXN"
   },
   {
      "countryCode":"MY",
      "currencyName":"Malaysian Ringgit",
      "currencyCode":"MYR"
   },
   {
      "countryCode":"NA",
      "currencyName":"Namibian Dollar",
      "currencyCode":"NAD"
   },
   {
      "countryCode":"NG",
      "currencyName":"Nigerian Naira",
      "currencyCode":"NGN"
   },
   {
      "countryCode":"NI",
      "currencyName":"Nicaraguan Cordoba Oro",
      "currencyCode":"NIO"
   },
   {
      "countryCode":"NO",
      "currencyName":"Norwegian Krone",
      "currencyCode":"NOK"
   },
   {
      "countryCode":"NP",
      "currencyName":"Nepalese Rupee",
      "currencyCode":"NPR"
   },
   {
      "countryCode":"NZ",
      "currencyName":"New Zealand Dollar",
      "currencyCode":"NZD"
   },
   {
      "countryCode":"OM",
      "currencyName":"Omani Rial",
      "currencyCode":"OMR"
   },
   {
      "countryCode":"PA",
      "currencyName":"Panamanian Balboa",
      "currencyCode":"PAB"
   },
   {
      "countryCode":"PE",
      "currencyName":"Peruvian Nuevo Sol",
      "currencyCode":"PEN"
   },
   {
      "countryCode":"PG",
      "currencyName":"Papua New Guinea Kina",
      "currencyCode":"PGK"
   },
   {
      "countryCode":"PH",
      "currencyName":"Philippine Peso",
      "currencyCode":"PHP"
   },
   {
      "countryCode":"PK",
      "currencyName":"Pakistan Rupee",
      "currencyCode":"PKR"
   },
   {
      "countryCode":"PL",
      "currencyName":"Polish Zloty",
      "currencyCode":"PLN"
   },
   {
      "countryCode":"PY",
      "currencyName":"Paraguay Guarani",
      "currencyCode":"PYG"
   },
   {
      "countryCode":"QA",
      "currencyName":"Qatari Rial",
      "currencyCode":"QAR"
   },
   {
      "countryCode":"RO",
      "currencyName":"Romanian New Leu",
      "currencyCode":"RON"
   },
   {
      "countryCode":"RS",
      "currencyName":"Dinar",
      "currencyCode":"RSD"
   },
   {
      "countryCode":"RU",
      "currencyName":"Russian Ruble",
      "currencyCode":"RUB"
   },
   {
      "countryCode":"RW",
      "currencyName":"Rwanda Franc",
      "currencyCode":"RWF"
   },
   {
      "countryCode":"SA",
      "currencyName":"Saudi Riyal",
      "currencyCode":"SAR"
   },
   {
      "countryCode":"SB",
      "currencyName":"Solomon Islands Dollar",
      "currencyCode":"SBD"
   },
   {
      "countryCode":"SC",
      "currencyName":"Seychelles Rupee",
      "currencyCode":"SCR"
   },
   {
      "countryCode":"SE",
      "currencyName":"Swedish Krona",
      "currencyCode":"SEK"
   },
   {
      "countryCode":"SG",
      "currencyName":"Singapore Dollar",
      "currencyCode":"SGD"
   },
   {
      "countryCode":"SH",
      "currencyName":"Saint Helena Pound",
      "currencyCode":"SHP"
   },
   {
      "countryCode":"SL",
      "currencyName":"Sierra Leone Leone ",
      "currencyCode":"SLL"
   },
   {
      "countryCode":"SO",
      "currencyName":"Somali Shilling",
      "currencyCode":"SOS"
   },
   {
      "countryCode":"SR",
      "currencyName":"Surinam Dollar",
      "currencyCode":"SRD"
   },
   {
      "countryCode":"ST",
      "currencyName":"Dobra",
      "currencyCode":"STD"
   },
   {
      "countryCode":"SY",
      "currencyName":"Syrian Pound",
      "currencyCode":"SYP"
   },
   {
      "countryCode":"SZ",
      "currencyName":"Swaziland Lilangeni",
      "currencyCode":"SZL"
   },
   {
      "countryCode":"TH",
      "currencyName":"Thai Baht",
      "currencyCode":"THB"
   },
   {
      "countryCode":"TJ",
      "currencyName":"Tajik Somoni",
      "currencyCode":"TJS"
   },
   {
      "countryCode":"TN",
      "currencyName":"Tunisian Dollar",
      "currencyCode":"TND"
   },
   {
      "countryCode":"TO",
      "currencyName":"Tongan Pa'anga",
      "currencyCode":"TOP"
   },
   {
      "countryCode":"TR",
      "currencyName":"Turkish Lira",
      "currencyCode":"TRY"
   },
   {
      "countryCode":"TT",
      "currencyName":"Trinidad and Tobago Dollar",
      "currencyCode":"TTD"
   },
   {
      "countryCode":"TW",
      "currencyName":"Taiwan Dollar",
      "currencyCode":"TWD"
   },
   {
      "countryCode":"TZ",
      "currencyName":"Tanzanian Shilling",
      "currencyCode":"TZS"
   },
   {
      "countryCode":"UA",
      "currencyName":"Ukraine Hryvnia",
      "currencyCode":"UAH"
   },
   {
      "countryCode":"UG",
      "currencyName":"Uganda Shilling",
      "currencyCode":"UGX"
   },
   {
      "countryCode":"US",
      "currencyName":"US Dollar",
      "currencyCode":"USD"
   },
   {
      "countryCode":"UY",
      "currencyName":"Uruguayan Peso",
      "currencyCode":"UYU"
   },
   {
      "countryCode":"UZ",
      "currencyName":"Uzbekistan Sum",
      "currencyCode":"UZS"
   },
   {
      "countryCode":"VN",
      "currencyName":"Vietnamese Dong",
      "currencyCode":"VND"
   },
   {
      "countryCode":"VU",
      "currencyName":"Vanuatu Vatu",
      "currencyCode":"VUV"
   },
   {
      "countryCode":"WS",
      "currencyName":"Samoan Tala",
      "currencyCode":"WST"
   },
   {
      "countryCode":"YE",
      "currencyName":"Yemeni Rial",
      "currencyCode":"YER"
   },
   {
      "countryCode":"ZA",
      "currencyName":"South African Rand",
      "currencyCode":"ZAR"
   }
]